Computer Work
…
Now we can plot the sequences of capital stocks:

toplot <- cbind(1:horizon, K, Klo, Khi)
toplot <- as_tibble(toplot) %>% 
  rename(ind = V1)
toplot

## # A tibble: 100 x 4
##      ind     K   Klo   Khi
##    <dbl> <dbl> <dbl> <dbl>
##  1    1.  1.87  1.40  2.33
##  2    2.  1.87  1.43  2.30
##  3    3.  1.87  1.46  2.27
##  4    4.  1.87  1.48  2.24
##  5    5.  1.87  1.50  2.22
##  6    6.  1.87  1.53  2.20
##  7    7.  1.87  1.55  2.17
##  8    8.  1.87  1.57  2.15
##  9    9.  1.87  1.59  2.13
## 10   10.  1.87  1.60  2.12
## # ... with 90 more rows

# Reshape the data to plot using ggplot
toplot_K <- toplot %>% 
  gather(K, Klo, Khi, key = "series", value = "lvl")
toplot_K

## # A tibble: 300 x 3
##      ind series   lvl
##    <dbl> <chr>  <dbl>
##  1    1. K       1.87
##  2    2. K       1.87
##  3    3. K       1.87
##  4    4. K       1.87
##  5    5. K       1.87
##  6    6. K       1.87
##  7    7. K       1.87
##  8    8. K       1.87
##  9    9. K       1.87
## 10   10. K       1.87
## # ... with 290 more rows
…
